tests/java9/underscore/underscore_06_2/Test.java:3: error: constructor _ does not have the same name as the simple name of the host class Test
tests/java9/underscore/underscore_06_2/Test.java:3: error: As of Java 9, '_' is a keyword, and may not be used as a constructor identifier.
tests/java9/underscore/underscore_06_2/Test.java:6: error: constructor _ does not have the same name as the simple name of the host class Test
tests/java9/underscore/underscore_06_2/Test.java:6: error: constructor with signature _() is multiply declared in type Test
tests/java9/underscore/underscore_06_2/Test.java:6: error: As of Java 9, '_' is a keyword, and may not be used as a constructor identifier.
